<svg xmlns="http://www.w3.org/2000/svg" viewBox="0 0 21.809 21.129">
  <defs>
    <style>
      .cls-1 {
        opacity: 0.5;
      }

      .cls-2 {
        fill: #5e87be;
      }
    </style>
  </defs>
  <g id="arrow-calendar" class="cls-1">
    <g id="ICONS_1_" transform="translate(0 0)">
      <g id="Calendar_3_">
        <path id="Path_34" data-name="Path 34" class="cls-2" d="M12.6,13.1v1.223a1.827,1.827,0,0,0,1.834,1.834,1.77,1.77,0,0,0,1.834-1.766V13.168h7.27v1.223a1.827,1.827,0,0,0,1.834,1.834,1.77,1.77,0,0,0,1.834-1.766V13.1a8.659,8.659,0,0,1,1.9.136,2.063,2.063,0,0,1,1.7,2.106V29.949A2.117,2.117,0,0,1,28.7,32.055h-17.6A2.117,2.117,0,0,1,9,29.949V15.274a2.117,2.117,0,0,1,2.106-2.106A10.519,10.519,0,0,1,12.6,13.1Zm16.781,5.843H10.427v9.919c0,.747.2.951,1.019.951H28.567c.679,0,.883-.272.951-.951V19.282C29.382,19.282,29.382,19.147,29.382,18.943Z" transform="translate(-9 -10.926)"/>
        <path id="Path_35" data-name="Path 35" class="cls-2" d="M17.606,12.142v1.019a1.073,1.073,0,0,1-1.087,1.087A1.06,1.06,0,0,1,15.5,13.161V10.987A1.107,1.107,0,0,1,16.519,9.9a1.018,1.018,0,0,1,1.087,1.019v1.223Z" transform="translate(-11.084 -9.9)"/>
        <path id="Path_36" data-name="Path 36" class="cls-2" d="M31.5,12.074V11.055A1.091,1.091,0,0,1,32.587,9.9a1.073,1.073,0,0,1,1.087,1.087v2.174a1.073,1.073,0,0,1-1.087,1.087A1.167,1.167,0,0,1,31.5,13.161Z" transform="translate(-16.214 -9.9)"/>
        <path id="Path_37" data-name="Path 37" class="cls-2" d="M22.553,26.006H19.7V23.9h2.853C22.553,24.647,22.553,25.327,22.553,26.006Z" transform="translate(-12.43 -14.388)"/>
        <path id="Path_38" data-name="Path 38" class="cls-2" d="M29.053,26.006H26.2V23.9h2.853C29.053,24.579,29.053,25.259,29.053,26.006Z" transform="translate(-14.514 -14.388)"/>
        <path id="Path_39" data-name="Path 39" class="cls-2" d="M35.486,26.006H32.7V23.9h2.786Z" transform="translate(-16.598 -14.388)"/>
        <path id="Path_40" data-name="Path 40" class="cls-2" d="M16.153,28.2v2.106H13.3V28.2Z" transform="translate(-10.379 -15.767)"/>
        <path id="Path_41" data-name="Path 41" class="cls-2" d="M19.8,28.2h2.853v2.106H19.8Z" transform="translate(-12.463 -15.767)"/>
        <path id="Path_42" data-name="Path 42" class="cls-2" d="M26.2,30.306V28.2h2.853v2.106Z" transform="translate(-14.514 -15.767)"/>
        <path id="Path_43" data-name="Path 43" class="cls-2" d="M35.453,30.306H32.6V28.2h2.853Z" transform="translate(-16.566 -15.767)"/>
        <path id="Path_44" data-name="Path 44" class="cls-2" d="M13.3,34.606V32.5h2.853v2.106Z" transform="translate(-10.379 -17.146)"/>
        <path id="Path_45" data-name="Path 45" class="cls-2" d="M19.8,32.5h2.853v2.106H19.8Z" transform="translate(-12.463 -17.146)"/>
        <path id="Path_46" data-name="Path 46" class="cls-2" d="M29.053,34.606H26.2V32.5h2.853C29.053,33.179,29.053,33.927,29.053,34.606Z" transform="translate(-14.514 -17.146)"/>
        <path id="Path_47" data-name="Path 47" class="cls-2" d="M35.453,34.606H32.6V32.5h2.853Z" transform="translate(-16.566 -17.146)"/>
      </g>
    </g>
  </g>
</svg>
