<svg xmlns="http://www.w3.org/2000/svg" viewBox="0 0 13.075 14.409">
  <defs>
    <style>
      .cls-1 {
        fill: #1e294d;
      }
    </style>
  </defs>
  <g id="node-bin" transform="translate(-1060 -535.019)">
    <path id="Path_98" data-name="Path 98" class="cls-1" d="M43.355,138.473a1.506,1.506,0,0,1-1.079-1.072,1.714,1.714,0,0,1-.074-.5q0-4.379,0-8.758c0-.046.006-.089.009-.144H43.5v9.151h7.876V128h1.3c0,.055.009.108.009.163v8.712a1.6,1.6,0,0,1-.765,1.435,2.757,2.757,0,0,1-.39.166Q47.439,138.471,43.355,138.473Z" transform="translate(1019.097 410.952)"/>
    <path id="Path_99" data-name="Path 99" class="cls-1" d="M4.569,0H8.5V1.291h4.579V2.6H0V1.3H4.569Z" transform="translate(1060 535.019)"/>
    <path id="Path_100" data-name="Path 100" class="cls-1" d="M149.1,176.939V170.4h1.291c0,.061.009.114.009.169q0,3.1,0,6.2c0,.144-.043.181-.181.178-.323-.009-.645,0-.968,0Z" transform="translate(915.482 369.855)"/>
    <path id="Path_101" data-name="Path 101" class="cls-1" d="M234.2,170.4h1.3v6.545h-.925c-.375,0-.375,0-.375-.375V170.4Z" transform="translate(832.997 369.855)"/>
  </g>
</svg>
